procs,-----io----,
r,free,us
1,463992,4
3,458528,4
35,427564,47
89,331640,99
112,330136,99
128,330020,99
125,330020,100
104,329764,100
106,329648,100
133,329648,99
130,329276,100
103,329384,99
103,329276,99
108,329276,100
138,328368,99
117,328888,100
110,328772,99
114,328780,99
134,328656,99
118,328532,100
103,327376,99
118,328276,100
126,328152,100
134,328152,99
99,328036,100
101,328036,99
109,327788,99
136,327788,100
112,327500,99
107,326640,99
